module gitlab.com/dnkolegov/ru-wireguard

go 1.13

require (
	golang.org/x/crypto v0.0.0-20200820211705-5c72a883971a
	golang.org/x/net v0.0.0-20200501053045-e0ff5e5a1de5
	golang.org/x/sys v0.0.0-20200501145240-bc7a7d42d5c3
	golang.org/x/text v0.3.2
)
